Day 5 - R-eady to be Deployed! – Math Camp 2025
…
mpg |>
  select(starts_with("d")) |>
  head(3)

# Rename while selecting
mpg |>
  select(make = manufacturer, model, hwy) |>
  head(3)

# Move columns around
mpg |>
  relocate(hwy, .before = displ) |>
  head(3)

# A tibble: 234 × 3
   manufacturer model        hwy
   <chr>        <chr>      <int>
 1 audi         a4            29
 2 audi         a4            29
 3 audi         a4            31
 4 audi         a4            30
 5 audi         a4            26
 6 audi         a4            26
 7 audi         a4            27
 8 audi         a4 quattro    26
 9 audi         a4 quattro    25
10 audi         a4 quattro    28
# ℹ 224 more rows
…
